Introduction to R
…
This is for future reference.

Focus on how much can be accomplished with very little code.

Read data

# Read data into R (csv format is easiest)
path = "data/HypotheticalData1.csv"
data = read_csv(path)

# Display data
data

# A tibble: 60 × 6
   `Patient ID`   Age Treatment `Baseline SBP` `Post Treatment SBP` Headache
          <dbl> <dbl> <chr>              <dbl>                <dbl> <chr>   
 1            1    45 Control             131.                 132. No      
 2            2    43 Control             129.                 126. No      
 3            3    44 Control             132.                 136. No      
 4            4    46 Control             129.                 134  No      
 5            5    49 Control             136.                 137. No      
 6            6    41 Control             127.                 128. No      
 7            7    41 Control             124.                 120. No      
 8            8    51 Control             130.                 131. Yes     
 9            9    48 Control             130.                 134. No      
10           10    45 Control             126.                 127. No      
# ℹ 50 more rows
…
Assignment 2 (Solution)

# 3. Suppose that patients $7$, $21$, and $45$ have corrupted data. Use filter() to remove them from the data set.
write_csv(data, file="making_up_a_file_name.csv")

Assignment 2 (Solution)

# 4. Use mutate() to create a new column in the data frame which is TRUE if SBP decreased after treatment.
data = mutate(data, `SBP Decrease Logical` = (`Baseline SBP` > `Post Treatment SBP`),
              .after = Treatment)
data

# A tibble: 60 × 8
   `Patient ID`   Age Treatment `SBP Decrease Logical` `Baseline SBP`
          <dbl> <dbl> <chr>     <lgl>                           <dbl>
 1            1    45 Control   FALSE                            131.
 2            2    43 Control   TRUE                             129.
 3            3    44 Control   FALSE                            132.
 4            4    46 Control   FALSE                            129.
 5            5    49 Control   FALSE                            136.
 6            6    41 Control   FALSE                            127.
 7            7    41 Control   TRUE                             124.
 8            8    51 Control   FALSE                            130.
 9            9    48 Control   FALSE                            130.
10           10    45 Control   FALSE                            126.
# ℹ 50 more rows
# ℹ 3 more variables: `Post Treatment SBP` <dbl>, Headache <chr>,
#   `SBP Decrease` <dbl>

Assignment 2 (Solution)

# 5. Use the select() function to get a data frame (give it a new name) with only the columns Treatment, Headache and SBP Decrease.
data_mod = select(data, c("Treatment", "Headache", "SBP Decrease"))
data_mod

# A tibble: 60 × 3
   Treatment Headache `SBP Decrease`
   <chr>     <chr>             <dbl>
 1 Control   No                -1.10
 2 Control   No                 3.10
 3 Control   No                -3.90
 4 Control   No                -4.80
 5 Control   No                -1.80
 6 Control   No                -1.20
 7 Control   No                 4.5 
 8 Control   Yes               -1.20
 9 Control   No                -3.5 
10 Control   No                -1.20
# ℹ 50 more rows
…
